<?xml version="1.0" encoding="iso-8859-1"?>
<!-- Generator: Adobe Illustrator 19.0.0, SVG Export Plug-In . SVG Version: 6.00 Build 0)  -->
<svg version="1.1" id="Capa_1" xmlns="http://www.w3.org/2000/svg" xmlns:xlink="http://www.w3.org/1999/xlink" x="0px" y="0px"
	 viewBox="0 0 512 512" style="enable-background:new 0 0 512 512;" xml:space="preserve">
<g>
	<g>
		<g>
			<path d="M426.667,192c-7.792,0-14.329,4.409-18.053,10.667H416c5.896,0,10.667,4.771,10.667,10.667
				c0,5.896-4.771,10.667-10.667,10.667h-7.387c3.724,6.258,10.262,10.667,18.053,10.667c11.76,0,21.333-9.573,21.333-21.333
				C448,201.573,438.427,192,426.667,192z"/>
			<path d="M437.333,301.947v7.387c0,5.896-4.771,10.667-10.667,10.667S416,315.229,416,309.333v-7.387
				c-6.258,3.724-10.667,10.262-10.667,18.053c0,11.76,9.573,21.333,21.333,21.333S448,331.76,448,320
				C448,312.208,443.591,305.671,437.333,301.947z"/>
			<path d="M469.333,106.667H232.702c-0.852-2.388-1.898-4.676-3.264-6.766l44.357-57.951c1.195,0.208,2.285,0.716,3.539,0.716
				c11.76,0,21.333-9.573,21.333-21.333C298.667,9.573,289.094,0,277.333,0C265.573,0,256,9.573,256,21.333
				c0,2.461,0.635,4.74,1.406,6.941L212.44,87.021c-3.1-1.004-6.344-1.688-9.773-1.688c-3.504,0-6.818,0.704-9.975,1.75
				l-44.949-57.896c0.975-2.441,1.591-5.07,1.591-7.854C149.333,9.573,139.76,0,128,0s-21.333,9.573-21.333,21.333
				c0,11.76,9.573,21.333,21.333,21.333c0.979,0,1.818-0.431,2.762-0.56l45.026,57.996c-1.31,2.036-2.331,4.247-3.156,6.564H42.667
				C19.135,106.667,0,125.802,0,149.333V448c0,23.531,19.135,42.667,42.667,42.667v10.667c0,5.896,4.771,10.667,10.667,10.667H64
				c4.042,0,7.729-2.281,9.542-5.896l7.719-15.438H430.74l7.719,15.438c1.813,3.615,5.5,5.896,9.542,5.896h10.667
				c5.896,0,10.667-4.771,10.667-10.667v-10.667C492.865,490.667,512,471.531,512,448V149.333
				C512,125.802,492.865,106.667,469.333,106.667z M362.667,393.073c0,19.344-12.938,36.292-31.469,41.208
				C307.583,440.542,266.125,448,202.667,448S97.75,440.542,74.146,434.281c-18.542-4.917-31.479-21.865-31.479-41.208V204.26
				c0-19.344,12.938-36.292,31.469-41.208c23.615-6.26,65.073-13.719,128.531-13.719s104.917,7.458,128.521,13.719
				c18.542,4.917,31.479,21.865,31.479,41.208V393.073z M458.667,405.333h-64c-5.896,0-10.667-4.771-10.667-10.667
				S388.771,384,394.667,384h64c5.896,0,10.667,4.771,10.667,10.667S464.563,405.333,458.667,405.333z M426.667,362.667
				C403.135,362.667,384,343.531,384,320s19.135-42.667,42.667-42.667s42.667,19.135,42.667,42.667S450.198,362.667,426.667,362.667
				z M426.667,256C403.135,256,384,236.865,384,213.333s19.135-42.667,42.667-42.667s42.667,19.135,42.667,42.667
				S450.198,256,426.667,256z"/>
		</g>
	</g>
</g>
<g>
</g>
<g>
</g>
<g>
</g>
<g>
</g>
<g>
</g>
<g>
</g>
<g>
</g>
<g>
</g>
<g>
</g>
<g>
</g>
<g>
</g>
<g>
</g>
<g>
</g>
<g>
</g>
<g>
</g>
</svg>
